{
  "appId": "com.ilume.app",
  "appName": "ilume",
  "bundledWebRuntime": false,
  "npmClient": "yarn",
  "webDir": "dist",
  "plugins": {
    "SplashScreen": {
      "launchShowDuration": 0
    }
  },
  "cordova": {}
}
